<svg xmlns="http://www.w3.org/2000/svg" xmlns:xlink="http://www.w3.org/1999/xlink" width="16" height="16" version="1.1" style=""><rect id="backgroundrect" width="100%" height="100%" x="0" y="0" fill="none" stroke="none"/>

<g class="currentLayer" style=""><title>Layer 1</title><g id="surface1" class="selected" fill-opacity="1" fill="#000000">
<path style="stroke: none; fill-rule: nonzero;" d="M 13.5 0 C 14.878906 0 16 1.121094 16 2.5 C 16 3.0625 15.8125 3.582031 15.5 4 L 14.5 5 L 11 1.5 L 12 0.5 C 12.417969 0.1875 12.9375 0 13.5 0 Z M 1 11.5 L 0 16 L 4.5 15 L 13.75 5.75 L 10.25 2.25 Z M 11.179688 5.679688 L 4.179688 12.679688 L 3.320312 11.820312 L 10.320312 4.820312 Z M 11.179688 5.679688 " id="svg_1" fill="#000000" fill-opacity="1"/>
</g></g></svg>